{
    "content": [
        {
         "1":"<h1>The starter cord is hard to pull</h1><h2>Possible problems:</h2><li><a href='#fix1'>Engagement of the engine flywheel brake</a></li><li><a href='#fix2'>Blades Are clogged</a></li><br><br><br><br><br><br><br><br><br> <h1  id='fix1'>Engagement of the engine flywheel brake</h1> <p>This problem is usually caused by the engagement of the engine flywheel brake.See if the flywheel brake is pressing against the handle before pulling the rope again. If the flywheel brake is not the issue and the problem persists, check the lawnmower blade.</p><br><br><h1  id='fix2'>Blades Are clogged</h1><p><iframe width='560' height='315' src='https://www.youtube.com/embed/2qrAcoaQzDg' frameborder='0' allow='accelerometer; autoplay; encrypted-media; gyroscope; picture-in-picture' allowfullscreen></iframe></p>",
         "2":"<h1>Lawn Mower loses power while moving</h1><h2>Possible problems:</h2><li><a href='#fix1'>Bad are filter</a></li><li><a href='#fix2'>Blades Are clogged</a></li><br><br><br><br><br><br><br><br><br> <h1  id='fix1'>Bad air filter</h1> <p>If the air filter looks bad, change it.</p><h1  id='fix2'>Blades Are clogged</h1><p>The lawn mower is on two low of a setting so move the deck down, if the deck is already as high as possible try going slower<p>",
         "3":"<h1>Lawn Mower starts smoking</h1><h2>Possible problem:</h2><li><a href='#fix1'>Oil leaked out </a></li><br><br><br><br><br><br><br><br><br> <h1  id='fix1'>Oil leaked out</h1> <p>Oil probably leaked out if you just got done changing it, tipping it over or cutting on a steep slope. There is not much you can do and it is not bad for the lawn mower.</p>",
         "4":"this is a test",
         "5":"this is a test",
         "6":"this is a test",
         "7":"this is a test",
         "9":"this is a test",
         "10":"this is a test",
         "11":"this is a test",
         "12":"this is a test",
         "13":"this is a test",
         "14":"this is a test",
         "15":"this is a test",
         "14":"this is a test"
        }
        
    ]
}

